{
  "compilerOptions": {
    "target": "es2017",
    "allowSyntheticDefaultImports": false,
    "baseUrl": "./",
    "module": "commonjs",
    "paths": {
      "*": ["src/*"]
    }
  },
  "exclude": ["node_modules", "dist"]
}