<svg width="32" height="32" viewBox="0 0 32 32" fill="none" xmlns="http://www.w3.org/2000/svg">
<g clip-path="url(#clip0)">
<path d="M15.36 3.2711C15.36 1.95555 15.2533 0.995545 15.0223 1.9449e-07H3.7402e-07V5.93773H8.81773C8.64002 7.41334 7.68002 9.63557 5.54664 11.1288L5.51674 11.3276L10.2665 15.0072L10.5956 15.04C13.6177 12.2489 15.36 8.1422 15.36 3.2711Z" transform="translate(15.9991 13.0869)" fill="#4285F4"/>
<path d="M14.2934 12.8356C18.6134 12.8356 22.24 11.4133 24.889 8.96001L19.8401 5.0488C18.489 5.99103 16.6756 6.6488 14.2934 6.6488C10.0623 6.6488 6.47123 3.85778 5.1911 -5.98431e-07L5.00346 0.0159326L0.0645884 3.83817L2.33762e-08 4.01771C2.63109 9.24435 8.03557 12.8356 14.2934 12.8356Z" transform="translate(1.70728 19.166)" fill="#34A853"/>
<path d="M6.89773 10.4246C6.55996 9.42906 6.36448 8.36231 6.36448 7.26014C6.36448 6.15785 6.55996 5.09122 6.87996 4.09567L6.87101 3.88364L1.87025 -4.33863e-07L1.70663 0.0778247C0.622231 2.24675 0 4.68236 0 7.26014C0 9.83792 0.622231 12.2734 1.70663 14.4423L6.89773 10.4246Z" transform="translate(0 8.73828)" fill="#FBBC05"/>
<path d="M14.2934 6.18665C17.2978 6.18665 19.3245 7.48442 20.4801 8.56894L24.9956 4.16001C22.2224 1.58223 18.6134 0 14.2934 0C8.03557 0 2.63109 3.5911 2.33762e-08 8.81774L5.17333 12.8356C6.47123 8.9778 10.0623 6.18665 14.2934 6.18665Z" transform="translate(1.70728)" fill="#EB4335"/>
</g>
<defs>
<clipPath id="clip0">
<rect width="31.36" height="32" fill="white"/>
</clipPath>
</defs>
</svg>
