<svg width="270" height="268" viewBox="0 0 270 268" fill="none" xmlns="http://www.w3.org/2000/svg">
<path d="M28.7216 -5.13247e-06L0 16.6078V19.5931L28.7216 2.9852V-5.13247e-06Z" transform="translate(161.664 207.622)" fill="#747678"/>
<path d="M2.56291e-06 1.02649e-05V2.98521L1.42768 3.78407V0.798853L2.56291e-06 1.02649e-05Z" transform="translate(160.237 223.433)" fill="#8B9092"/>
<path d="M28.7636 -5.13247e-06L2.56291e-06 16.6499L1.42768 17.4487L30.1493 0.840898L28.7636 -5.13247e-06Z" transform="translate(160.237 206.781)" fill="#ADAFB0"/>
<path d="M28.7636 0L0 16.6078V19.6351L28.7636 3.02726V0Z" transform="translate(156.415 204.554)" fill="#747678"/>
<path d="M5.12581e-06 -1.02649e-05V2.98521L1.38569 3.82611V0.798858L5.12581e-06 -1.02649e-05Z" transform="translate(155.029 220.362)" fill="#8B9092"/>
<path d="M28.7216 2.56623e-06L5.12581e-06 16.6078L1.38569 17.4067L30.1493 0.798858L28.7216 2.56623e-06Z" transform="translate(155.029 203.754)" fill="#ADAFB0"/>
<path d="M28.7216 -2.56623e-06L5.12581e-06 16.6078V19.6351L28.7216 3.02725V-2.56623e-06Z" transform="translate(151.25 201.568)" fill="#747678"/>
<path d="M-5.12581e-06 0V2.9852L1.42769 3.8261V0.798868L-5.12581e-06 0Z" transform="translate(149.823 217.376)" fill="#8B9092"/>
<path d="M28.7636 0L-5.12581e-06 16.6078L1.42769 17.4067L30.1493 0.798856L28.7636 0Z" transform="translate(149.823 200.769)" fill="#ADAFB0"/>
<path d="M164.435 208.589L5.87869 116.931C2.22551 114.829 1.28145e-06 110.961 1.28145e-06 106.756V5.88965C1.28145e-06 1.34877 4.91291 -1.46825 8.81804 0.802187L167.375 92.2504C171.028 94.3527 173.254 98.2208 173.254 102.467V203.502C173.254 208.043 168.383 210.86 164.435 208.589Z" transform="translate(66.051)" fill="#A0A7AD"/>
<path d="M18.224 -5.13247e-06L18.2659 15.2203C18.2659 18.8362 16.3344 22.1998 13.2271 24.0078L5.12581e-06 31.66L36.5739 52.8087L49.8429 45.1565C52.9922 43.3486 54.8818 40.027 54.8818 36.4111V21.1067L18.224 -5.13247e-06Z" transform="translate(111.779 154.646)" fill="#A0A7AD"/>
<path d="M5.12581e-06 5.92837L3.48523 4.16247L0.503898 0L5.12581e-06 5.92837Z" transform="translate(232.712 204.554)" fill="#A0A7AD"/>
<path d="M3.52721 0L1.28145e-06 1.80794H1.76361L3.52721 0Z" transform="translate(65.4211 0.843628)" fill="#A0A7AD"/>
<path d="M164.435 208.589L5.87869 116.931C2.22551 114.829 0 110.961 0 106.756V5.88965C0 1.34877 4.91291 -1.46825 8.81804 0.802187L167.375 92.2504C171.028 94.3527 173.253 98.2208 173.253 102.467V203.502C173.253 208.043 168.341 210.86 164.435 208.589Z" transform="translate(62.356 1.93408)" fill="#CACACC"/>
<path d="M-1.28145e-06 1.6039e-07V96.4937L156.919 187.185V90.3551L-1.28145e-06 1.6039e-07Z" transform="translate(70.2087 11.3969)" fill="#E3F3F7"/>
<path d="M-2.56291e-06 0V12.109L138.443 92.1209V80.096L-2.56291e-06 0Z" transform="translate(78.0603 24.8109)" fill="#F37C54"/>
<path d="M0 1.28312e-06V36.2429L28.6796 52.8087L28.7216 16.6078L0 1.28312e-06Z" transform="translate(78.103 43.015)" fill="#5CD2D2"/>
<path d="M0.0419958 0L2.56291e-06 36.2009L28.8056 52.8928V16.6499L0.0419958 0Z" transform="translate(111.947 65.5935)" fill="#CF3A52"/>
<path d="M6.3406 33.552L8.90202 35.0657L6.3406 33.552ZM0.0419958 0L2.56291e-06 36.1588L6.3406 39.8168V33.51L6.21462 33.4259L5.54276 33.7623L5.4168 33.4679L5.8367 33.2157L8.44013 31.702L8.94401 31.9964L10.7916 33.0475L11.1275 33.2577L11.5474 33.51L14.9907 35.4861L16.7123 36.4952L18.8538 38.7656C19.0218 38.9338 19.2317 39.0179 19.4417 39.0179C19.5676 39.0179 19.7356 38.9759 19.8616 38.8918L21.8771 37.7145L24.5226 39.2281L19.8196 41.9611C19.6936 42.0452 19.5257 42.0872 19.3997 42.0872C19.2317 42.0872 19.0218 42.0031 18.8538 41.919L16.6703 40.1531L18.8538 41.919C19.0218 42.0452 19.1897 42.0872 19.3997 42.0872C19.5257 42.0872 19.6936 42.0452 19.8196 41.9611L24.5226 39.2281V40.994L19.8196 43.727C19.6936 43.8111 19.5257 43.8531 19.3997 43.8531C19.2317 43.8531 19.0218 43.8111 18.8538 43.6849L16.6703 41.919V45.8713L28.7216 52.8508V16.6078L0.0419958 0Z" transform="translate(111.947 65.5935)" fill="#E3516E"/>
<path d="M0 -1.28312e-06V36.285L28.7636 52.8508L28.8896 16.6499L0 -1.28312e-06Z" transform="translate(151.167 85.228)" fill="#4F9CD0"/>
<path d="M5.12581e-06 0V63.4461L28.7636 80.096L28.8476 16.6919L5.12581e-06 0Z" transform="translate(187.782 106.379)" fill="#F2C06B"/>
<path d="M5.12581e-06 0V2.98521L2.60342 1.47158L5.12581e-06 0Z" transform="translate(164.058 174.28)" fill="#8F959B"/>
<path d="M5.12581e-06 -2.56623e-06V0.0420452L2.60342 1.51363H2.64541L5.12581e-06 -2.56623e-06Z" transform="translate(164.058 174.239)" fill="#B5B5B7"/>
<path d="M5.45879 4.72308C5.45879 6.2367 4.24106 6.74124 2.7294 5.85829C1.21773 4.97534 5.12581e-06 3.08331 5.12581e-06 1.56969C5.12581e-06 0.0560629 1.21773 -0.448484 2.7294 0.434464C4.24106 1.31741 5.45879 3.20945 5.45879 4.72308Z" transform="translate(142.223 154.673)" fill="#A0A7AD"/>
<path d="M1.28145e-06 0.756813L1.38569 3.20779e-07L139.829 80.096L139.787 92.163L138.527 92.9198L138.485 80.8108L1.28145e-06 0.756813Z" transform="translate(78.0188 24.0529)" fill="#F37C54"/>
<path d="M1.3437 -1.28312e-06L-1.02516e-05 0.714765L0.0419958 12.8238L1.30172 12.0249L1.3437 -1.28312e-06Z" transform="translate(216.504 104.149)" fill="#C76746"/>
<path d="M1.63764 0.967039V97.4607L-1.28145e-06 96.4936V1.6039e-07L1.63764 0.967039Z" transform="translate(70.2087 11.3969)" fill="#A0A7AD"/>
<path d="M1.63764 1.28312e-06L156.919 89.7664V91.6584L-1.28145e-06 0.967041L1.63764 1.28312e-06Z" transform="translate(70.2087 106.924)" fill="#A0A7AD"/>
<path d="M1.28145e-06 0.756812L1.38569 1.28312e-06L30.1073 16.6078L30.1493 52.8508L28.7636 53.6496L28.8056 17.4487L1.28145e-06 0.756812Z" transform="translate(78.0188 42.1738)" fill="#5CD2D2"/>
<path d="M1.3437 1.28312e-06L0.0419881 0.840904L1.28145e-06 37.0418L1.38569 36.2429L1.3437 1.28312e-06Z" transform="translate(106.782 58.7814)" fill="#4BAEAF"/>
<path d="M1.38569 1.28312e-06L1.28145e-06 0.756812L28.8056 17.4487L30.1073 16.6078L1.38569 1.28312e-06Z" transform="translate(78.0188 42.1738)" fill="#9FE5E5"/>
<path d="M5.12581e-06 2.27044L3.98912 2.56623e-06L32.7107 16.6078L32.6687 52.8928L28.7636 55.1632V18.9203L5.12581e-06 2.27044Z" transform="translate(111.989 63.3243)" fill="#20AAE0"/>
<path d="M5.12581e-06 2.27044L3.98912 2.56623e-06L32.7107 16.6078L28.7636 18.9203L5.12581e-06 2.27044Z" transform="translate(111.989 63.3243)" fill="#CF3A52"/>
<path d="M3.98912 2.56623e-06L5.12581e-06 2.27044L28.7636 18.9203L32.7107 16.6078L3.98912 2.56623e-06Z" transform="translate(111.989 63.3243)" fill="#F6678A"/>
<path d="M3.94713 2.56623e-06L3.90513 36.285L5.12581e-06 38.5554V2.31249L3.94713 2.56623e-06Z" transform="translate(140.753 79.9319)" fill="#CF3A52"/>
<path d="M0 0.756812L1.38569 -2.56623e-06L30.1073 16.6078L30.1493 52.8508L28.7636 53.6076L28.8896 17.4067L0 0.756812Z" transform="translate(151.167 84.4724)" fill="#4F9CD0"/>
<path d="M1.34371 -2.56623e-06L0.125967 0.798859L0 36.9997L1.38569 36.2429L1.34371 -2.56623e-06Z" transform="translate(179.93 101.08)" fill="#4181AD"/>
<path d="M1.38569 -2.56623e-06L0 0.756812L28.8896 17.4067L30.1073 16.6078L1.38569 -2.56623e-06Z" transform="translate(151.167 84.4724)" fill="#97C5E4"/>
<path d="M5.12581e-06 0.756813L1.3437 -1.28312e-06L30.1073 16.6078V80.054L28.7636 80.8528L28.7216 17.3647L5.12581e-06 0.756813Z" transform="translate(187.782 105.62)" fill="#F2C06B"/>
<path d="M2.44141e-05 5.13247e-06V63.4462V5.13247e-06Z" transform="translate(217.889 122.228)" fill="#E3F3F7"/>
<path d="M2.44141e-05 5.13247e-06V63.4462V5.13247e-06Z" transform="translate(217.889 122.228)" fill="#D1D3D4"/>
<path d="M1.3857 5.13247e-06L-1.02516e-05 0.756813L0.0419958 64.245L1.3857 63.4462V5.13247e-06Z" transform="translate(216.504 122.228)" fill="#C69F59"/>
<path d="M1.38569 3.20779e-07L1.28145e-06 0.756813L138.485 80.8108L139.829 80.096L1.38569 3.20779e-07Z" transform="translate(78.0188 24.0529)" fill="#F8B29B"/>
<path d="M1.3437 -1.28312e-06L5.12581e-06 0.756813L28.7216 17.3647L30.1073 16.6078L1.3437 -1.28312e-06Z" transform="translate(187.782 105.62)" fill="#F8DAA9"/>
<path d="M1.28145e-06 -1.28312e-06V3.02725L28.7636 19.6351V16.6499L1.28145e-06 -1.28312e-06Z" transform="translate(78.0188 85.228)" fill="#E3F3F7"/>
<path d="M1.28145e-06 -1.28312e-06V3.02725L28.7636 19.6351V16.6499L1.28145e-06 -1.28312e-06Z" transform="translate(78.0188 85.228)" fill="#909193"/>
<path d="M1.38569 1.28312e-06L1.28145e-06 0.840904V3.82611L1.3437 3.02725L1.38569 1.28312e-06Z" transform="translate(106.782 101.038)" fill="#E3F3F7"/>
<path d="M1.38569 1.28312e-06L1.28145e-06 0.840904V3.82611L1.3437 3.02725L1.38569 1.28312e-06Z" transform="translate(106.782 101.038)" fill="#758082"/>
<path d="M1.42768 1.28312e-06L1.28145e-06 0.798857L28.7636 17.4487L30.1493 16.6078L1.42768 1.28312e-06Z" transform="translate(78.0188 84.4309)" fill="#E3F3F7"/>
<path d="M1.42768 1.28312e-06L1.28145e-06 0.798857L28.7636 17.4487L30.1493 16.6078L1.42768 1.28312e-06Z" transform="translate(78.0188 84.4309)" fill="#ADB5B6"/>
<path d="M1.28145e-06 2.56623e-06V3.02725L28.7636 19.6351V16.6078L1.28145e-06 2.56623e-06Z" transform="translate(78.0188 91.2822)" fill="#E3F3F7"/>
<path d="M1.28145e-06 2.56623e-06V3.02725L28.7636 19.6351V16.6078L1.28145e-06 2.56623e-06Z" transform="translate(78.0188 91.2822)" fill="#909193"/>
<path d="M1.38569 -1.28312e-06L1.28145e-06 0.798861V3.8261L1.3437 3.02725L1.38569 -1.28312e-06Z" transform="translate(106.782 107.093)" fill="#E3F3F7"/>
<path d="M1.38569 -1.28312e-06L1.28145e-06 0.798861V3.8261L1.3437 3.02725L1.38569 -1.28312e-06Z" transform="translate(106.782 107.093)" fill="#758082"/>
<path d="M1.42768 -1.28312e-06L1.28145e-06 0.798861L28.7636 17.4067L30.1493 16.6078L1.42768 -1.28312e-06Z" transform="translate(78.0188 90.4851)" fill="#E3F3F7"/>
<path d="M1.42768 -1.28312e-06L1.28145e-06 0.798861L28.7636 17.4067L30.1493 16.6078L1.42768 -1.28312e-06Z" transform="translate(78.0188 90.4851)" fill="#ADB5B6"/>
<path d="M1.28145e-06 0V3.02725L28.7636 19.6351V16.6078L1.28145e-06 0Z" transform="translate(78.0188 97.3389)" fill="#E3F3F7"/>
<path d="M1.28145e-06 0V3.02725L28.7636 19.6351V16.6078L1.28145e-06 0Z" transform="translate(78.0188 97.3389)" fill="#909193"/>
<path d="M1.38569 2.56623e-06L1.28145e-06 0.798858V3.82611L1.3437 3.02725L1.38569 2.56623e-06Z" transform="translate(106.782 113.147)" fill="#E3F3F7"/>
<path d="M1.38569 2.56623e-06L1.28145e-06 0.798858V3.82611L1.3437 3.02725L1.38569 2.56623e-06Z" transform="translate(106.782 113.147)" fill="#758082"/>
<path d="M1.42768 0L1.28145e-06 0.840903L28.7636 17.4487L30.1493 16.6499L1.42768 0Z" transform="translate(78.0188 96.4977)" fill="#E3F3F7"/>
<path d="M1.42768 0L1.28145e-06 0.840903L28.7636 17.4487L30.1493 16.6499L1.42768 0Z" transform="translate(78.0188 96.4977)" fill="#ADB5B6"/>
<path d="M1.28145e-06 -2.56623e-06V2.98521L28.7636 19.6351V16.6078L1.28145e-06 -2.56623e-06Z" transform="translate(78.0188 103.393)" fill="#E3F3F7"/>
<path d="M1.28145e-06 -2.56623e-06V2.98521L28.7636 19.6351V16.6078L1.28145e-06 -2.56623e-06Z" transform="translate(78.0188 103.393)" fill="#909193"/>
<path d="M1.38569 -2.56623e-06L1.28145e-06 0.840901V3.86816L1.3437 3.02725L1.38569 -2.56623e-06Z" transform="translate(106.782 119.159)" fill="#E3F3F7"/>
<path d="M1.38569 -2.56623e-06L1.28145e-06 0.840901V3.86816L1.3437 3.02725L1.38569 -2.56623e-06Z" transform="translate(106.782 119.159)" fill="#758082"/>
<path d="M1.42768 -2.56623e-06L1.28145e-06 0.840901L28.7636 17.4487L30.1493 16.6078L1.42768 -2.56623e-06Z" transform="translate(78.0188 102.552)" fill="#E3F3F7"/>
<path d="M1.42768 -2.56623e-06L1.28145e-06 0.840901L28.7636 17.4487L30.1493 16.6078L1.42768 -2.56623e-06Z" transform="translate(78.0188 102.552)" fill="#ADB5B6"/>
<path d="M14.1089 8.15676V11.184L20.8274 15.0522L21.8351 14.4635L24.4386 15.9772L24.2286 17.0283L28.7636 19.6351V16.6078L14.1089 8.15676ZM-2.56291e-06 0V3.02726L3.65319 5.12951V2.10226L-2.56291e-06 0Z" transform="translate(114.592 106.379)" fill="#E3F3F7"/>
<path d="M14.1089 8.15676V11.184L20.8274 15.0522L21.8351 14.4635L24.4386 15.9772L24.2286 17.0283L28.7636 19.6351V16.6078L14.1089 8.15676ZM-2.56291e-06 0V3.02726L3.65319 5.12951V2.10226L-2.56291e-06 0Z" transform="translate(114.592 106.379)" fill="#909193"/>
<path d="M1.3857 2.56623e-06L-2.56291e-06 0.840906V3.82611L1.3437 3.02725L1.3857 2.56623e-06Z" transform="translate(143.356 122.186)" fill="#E3F3F7"/>
<path d="M1.3857 2.56623e-06L-2.56291e-06 0.840906V3.82611L1.3437 3.02725L1.3857 2.56623e-06Z" transform="translate(143.356 122.186)" fill="#758082"/>
<path d="M14.0669 7.31586V8.95562L28.7216 17.4487L30.1073 16.6499L14.0669 7.31586ZM1.38569 2.56623e-06L0 0.798858L3.65319 2.90112V1.3034L1.38569 2.56623e-06Z" transform="translate(114.635 105.579)" fill="#E3F3F7"/>
<path d="M14.0669 7.31586V8.95562L28.7216 17.4487L30.1073 16.6499L14.0669 7.31586ZM1.38569 2.56623e-06L0 0.798858L3.65319 2.90112V1.3034L1.38569 2.56623e-06Z" transform="translate(114.635 105.579)" fill="#ADB5B6"/>
<path d="M23.6408 13.6647L23.0529 16.3556L28.7636 19.6771V16.6499L23.6408 13.6647ZM11.5054 6.64314V9.37608L7.39036 7.02154L7.34836 7.27382L21.0373 15.1783L21.6252 12.4874L11.5054 6.64314ZM-2.56291e-06 -2.56623e-06V3.02725L2.72939 4.58292L3.31726 1.89203L-2.56291e-06 -2.56623e-06Z" transform="translate(114.592 112.433)" fill="#E3F3F7"/>
<path d="M23.6408 13.6647L23.0529 16.3556L28.7636 19.6771V16.6499L23.6408 13.6647ZM11.5054 6.64314V9.37608L7.39036 7.02154L7.34836 7.27382L21.0373 15.1783L21.6252 12.4874L11.5054 6.64314ZM-2.56291e-06 -2.56623e-06V3.02725L2.72939 4.58292L3.31726 1.89203L-2.56291e-06 -2.56623e-06Z" transform="translate(114.592 112.433)" fill="#909193"/>
<path d="M1.3857 0L-2.56291e-06 0.798855V3.82611L1.3437 3.02726L1.3857 0Z" transform="translate(143.356 128.241)" fill="#E3F3F7"/>
<path d="M1.3857 0L-2.56291e-06 0.798855V3.82611L1.3437 3.02726L1.3857 0Z" transform="translate(143.356 128.241)" fill="#758082"/>
<path d="M23.8927 13.034L23.5568 14.4635L28.6796 17.4487L30.0653 16.6499L23.8927 13.034ZM11.4634 7.14768V7.442L21.5832 13.2863L21.7932 12.2351L19.1897 10.7215L19.5677 10.5113L14.0669 7.31586V8.61926L11.4634 7.14768ZM1.38569 0L0 0.798855L3.31726 2.69089L3.56921 1.63976L3.69517 1.55568V1.26135L1.38569 0Z" transform="translate(114.635 111.633)" fill="#E3F3F7"/>
<path d="M23.8927 13.034L23.5568 14.4635L28.6796 17.4487L30.0653 16.6499L23.8927 13.034ZM11.4634 7.14768V7.442L21.5832 13.2863L21.7932 12.2351L19.1897 10.7215L19.5677 10.5113L14.0669 7.31586V8.61926L11.4634 7.14768ZM1.38569 0L0 0.798855L3.31726 2.69089L3.56921 1.63976L3.69517 1.55568V1.26135L1.38569 0Z" transform="translate(114.635 111.633)" fill="#ADB5B6"/>
<path d="M19.9036 14.2533L19.6516 14.3794L19.8196 14.4635L19.9036 14.2533ZM22.423 12.9499L21.8351 15.6408L28.7636 19.6351V16.6078L22.423 12.9499ZM-2.56291e-06 -5.13247e-06V3.02725L1.51166 3.9102L2.09953 1.21931L-2.56291e-06 -5.13247e-06Z" transform="translate(114.592 118.487)" fill="#E3F3F7"/>
<path d="M19.9036 14.2533L19.6516 14.3794L19.8196 14.4635L19.9036 14.2533ZM22.423 12.9499L21.8351 15.6408L28.7636 19.6351V16.6078L22.423 12.9499ZM-2.56291e-06 -5.13247e-06V3.02725L1.51166 3.9102L2.09953 1.21931L-2.56291e-06 -5.13247e-06Z" transform="translate(114.592 118.487)" fill="#909193"/>
<path d="M1.3857 -2.56623e-06L-2.56291e-06 0.798853V3.82611L1.3437 3.02725L1.3857 -2.56623e-06Z" transform="translate(143.356 134.295)" fill="#E3F3F7"/>
<path d="M1.3857 -2.56623e-06L-2.56291e-06 0.798853V3.82611L1.3437 3.02725L1.3857 -2.56623e-06Z" transform="translate(143.356 134.295)" fill="#758082"/>
<path d="M22.717 12.3613L22.381 13.7908L28.7216 17.4487L30.1073 16.6499L22.717 12.3613ZM7.05443 3.27953L6.97045 3.65793L20.6594 11.5204L20.7434 11.184L7.05443 3.27953ZM1.38569 -5.13247e-06L0 0.798863L2.09953 2.01817L2.43545 0.588637L1.38569 -5.13247e-06Z" transform="translate(114.635 117.646)" fill="#E3F3F7"/>
<path d="M22.717 12.3613L22.381 13.7908L28.7216 17.4487L30.1073 16.6499L22.717 12.3613ZM7.05443 3.27953L6.97045 3.65793L20.6594 11.5204L20.7434 11.184L7.05443 3.27953ZM1.38569 -5.13247e-06L0 0.798863L2.09953 2.01817L2.43545 0.588637L1.38569 -5.13247e-06Z" transform="translate(114.635 117.646)" fill="#ADB5B6"/>
<path d="M21.2473 12.2772L20.6594 14.9681L28.7636 19.6351V16.6078L21.2473 12.2772ZM5.58476 3.23747L4.99688 5.92837L18.6858 13.8329L19.2737 11.142L5.58476 3.23747ZM-2.56291e-06 2.56623e-06V3.02725L0.33593 3.23747L0.923797 0.546584L-2.56291e-06 2.56623e-06Z" transform="translate(114.592 124.5)" fill="#E3F3F7"/>
<path d="M21.2473 12.2772L20.6594 14.9681L28.7636 19.6351V16.6078L21.2473 12.2772ZM5.58476 3.23747L4.99688 5.92837L18.6858 13.8329L19.2737 11.142L5.58476 3.23747ZM-2.56291e-06 2.56623e-06V3.02725L0.33593 3.23747L0.923797 0.546584L-2.56291e-06 2.56623e-06Z" transform="translate(114.592 124.5)" fill="#909193"/>
<path d="M1.3857 5.13247e-06L-2.56291e-06 0.840908V3.86815L1.3437 3.02725L1.3857 5.13247e-06Z" transform="translate(143.356 140.307)" fill="#E3F3F7"/>
<path d="M1.3857 5.13247e-06L-2.56291e-06 0.840908V3.86815L1.3437 3.02725L1.3857 5.13247e-06Z" transform="translate(143.356 140.307)" fill="#758082"/>
<path d="M21.5832 11.5204L21.2473 12.9499L28.7636 17.2806L30.1493 16.4817L21.5832 11.5204ZM5.79472 2.81703L5.54277 3.91019L19.2317 11.8147L19.5677 10.3852L18.4339 9.75448L18.098 9.96471V9.58629V9.96471L5.79472 2.81703ZM1.21772 0L-2.56291e-06 0.714773L0.923797 1.26135L1.21772 0Z" transform="translate(114.592 123.827)" fill="#E3F3F7"/>
<path d="M21.5832 11.5204L21.2473 12.9499L28.7636 17.2806L30.1493 16.4817L21.5832 11.5204ZM5.79472 2.81703L5.54277 3.91019L19.2317 11.8147L19.5677 10.3852L18.4339 9.75448L18.098 9.96471V9.58629V9.96471L5.79472 2.81703ZM1.21772 0L-2.56291e-06 0.714773L0.923797 1.26135L1.21772 0Z" transform="translate(114.592 123.827)" fill="#ADB5B6"/>
<path d="M2.56291e-06 -2.56623e-06V3.02725L28.7216 19.6351V16.6078L2.56291e-06 -2.56623e-06Z" transform="translate(151.208 127.568)" fill="#E3F3F7"/>
<path d="M2.56291e-06 -2.56623e-06V3.02725L28.7216 19.6351V16.6078L2.56291e-06 -2.56623e-06Z" transform="translate(151.208 127.568)" fill="#909193"/>
<path d="M1.42768 0L0 0.798855V3.82611L1.38569 3.02726L1.42768 0Z" transform="translate(179.93 143.376)" fill="#E3F3F7"/>
<path d="M1.42768 0L0 0.798855V3.82611L1.38569 3.02726L1.42768 0Z" transform="translate(179.93 143.376)" fill="#758082"/>
<path d="M1.38569 -2.56623e-06L2.56291e-06 0.840901L28.7216 17.4487L30.1493 16.6499L1.38569 -2.56623e-06Z" transform="translate(151.208 126.727)" fill="#E3F3F7"/>
<path d="M1.38569 -2.56623e-06L2.56291e-06 0.840901L28.7216 17.4487L30.1493 16.6499L1.38569 -2.56623e-06Z" transform="translate(151.208 126.727)" fill="#ADB5B6"/>
<path d="M2.56291e-06 -5.13247e-06V2.9852L28.7216 19.6351V16.6078L2.56291e-06 -5.13247e-06Z" transform="translate(151.208 133.622)" fill="#E3F3F7"/>
<path d="M2.56291e-06 -5.13247e-06V2.9852L28.7216 19.6351V16.6078L2.56291e-06 -5.13247e-06Z" transform="translate(151.208 133.622)" fill="#909193"/>
<path d="M1.42768 -5.13247e-06L0 0.840898V3.86815L1.38569 3.0693L1.42768 -5.13247e-06Z" transform="translate(179.93 149.389)" fill="#E3F3F7"/>
<path d="M1.42768 -5.13247e-06L0 0.840898V3.86815L1.38569 3.0693L1.42768 -5.13247e-06Z" transform="translate(179.93 149.389)" fill="#758082"/>
<path d="M1.38569 -5.13247e-06L2.56291e-06 0.840898L28.7216 17.4487L30.1493 16.6078L1.38569 -5.13247e-06Z" transform="translate(151.208 132.781)" fill="#E3F3F7"/>
<path d="M1.38569 -5.13247e-06L2.56291e-06 0.840898L28.7216 17.4487L30.1493 16.6078L1.38569 -5.13247e-06Z" transform="translate(151.208 132.781)" fill="#ADB5B6"/>
<path d="M2.56291e-06 2.56623e-06V3.02725L28.7216 19.6351V16.6078L2.56291e-06 2.56623e-06Z" transform="translate(151.208 139.635)" fill="#E3F3F7"/>
<path d="M2.56291e-06 2.56623e-06V3.02725L28.7216 19.6351V16.6078L2.56291e-06 2.56623e-06Z" transform="translate(151.208 139.635)" fill="#909193"/>
<path d="M1.42768 5.13247e-06L0 0.798861V3.8261L1.38569 3.02725L1.42768 5.13247e-06Z" transform="translate(179.93 155.445)" fill="#E3F3F7"/>
<path d="M1.42768 5.13247e-06L0 0.798861V3.8261L1.38569 3.02725L1.42768 5.13247e-06Z" transform="translate(179.93 155.445)" fill="#758082"/>
<path d="M1.38569 5.13247e-06L2.56291e-06 0.798861L28.7216 17.4067L30.1493 16.6078L1.38569 5.13247e-06Z" transform="translate(151.208 138.835)" fill="#E3F3F7"/>
<path d="M1.38569 5.13247e-06L2.56291e-06 0.798861L28.7216 17.4067L30.1493 16.6078L1.38569 5.13247e-06Z" transform="translate(151.208 138.835)" fill="#ADB5B6"/>
<path d="M2.56291e-06 0V3.02726L28.7216 19.6351V16.6078L2.56291e-06 0Z" transform="translate(151.208 145.689)" fill="#E3F3F7"/>
<path d="M2.56291e-06 0V3.02726L28.7216 19.6351V16.6078L2.56291e-06 0Z" transform="translate(151.208 145.689)" fill="#909193"/>
<path d="M1.42768 2.56623e-06L0 0.798858V3.82611L1.38569 3.02725L1.42768 2.56623e-06Z" transform="translate(179.93 161.5)" fill="#E3F3F7"/>
<path d="M1.42768 2.56623e-06L0 0.798858V3.82611L1.38569 3.02725L1.42768 2.56623e-06Z" transform="translate(179.93 161.5)" fill="#758082"/>
<path d="M1.38569 2.56623e-06L2.56291e-06 0.798858L28.7216 17.4067L30.1493 16.6078L1.38569 2.56623e-06Z" transform="translate(151.208 144.892)" fill="#E3F3F7"/>
<path d="M1.38569 2.56623e-06L2.56291e-06 0.798858L28.7216 17.4067L30.1493 16.6078L1.38569 2.56623e-06Z" transform="translate(151.208 144.892)" fill="#ADB5B6"/>
<path d="M15.6205 5.13247e-06L15.6625 16.2294C15.6625 19.2567 14.0669 22.0317 11.4635 23.5453L5.12581e-06 30.1884L36.5739 51.3371L48.0793 44.7361C50.6827 43.2224 52.2784 40.4474 52.2784 37.4622V21.1908L15.6205 5.13247e-06Z" transform="translate(111.779 153.132)" fill="#CACACC"/>
<path d="M5.12581e-06 -2.56623e-06V3.02725L2.60342 1.51363L5.12581e-06 -2.56623e-06Z" transform="translate(111.779 183.278)" fill="#A0A7AD"/>
<path d="M-6.10352e-06 2.56623e-06V1.30341V2.56623e-06Z" transform="translate(127.4 154.773)" fill="#E4E4E5"/>
<path d="M4.32504 2.10226L3.98911 3.69997L2.98133 4.28861L36.6998 23.7976V20.7703L4.32504 2.10226ZM0.587874 0V1.63976L-5.12581e-06 1.3034V2.60681L1.67962 3.57384L2.2675 0.967034L1.97356 0.798855L0.545881 1.63976L0.587874 0Z" transform="translate(127.357 153.467)" fill="#B5B5B7"/>
<path d="M63.7418 48.8985L0 12.067V-5.13247e-06L63.7418 36.7895V48.8985Z" transform="translate(0 143.714)" fill="#EB4517"/>
<path d="M63.7418 48.8985L0 12.067V-5.13247e-06L63.7418 36.7895V48.8985Z" transform="translate(0 143.714)" fill="#F37C54"/>
<path d="M0.62986 4.62497L-2.00227e-08 4.24657V2.56623e-06L0.62986 0.336359V4.62497Z" transform="translate(0.965576 144.261)" fill="white"/>
<path d="M0.62986 4.62497L0 4.2886V5.13247e-06L0.62986 0.378409V4.62497Z" transform="translate(2.51953 145.144)" fill="white"/>
<path d="M0.62986 4.62497L8.00908e-08 4.24656V-2.56623e-06L0.62986 0.378401V4.62497Z" transform="translate(4.11499 146.068)" fill="white"/>
<path d="M0.62986 4.58292L0 4.24657V2.56623e-06L0.62986 0.336359V4.58292Z" transform="translate(5.66895 146.992)" fill="white"/>
<path d="M0.62986 4.58292L0 4.24656V-2.56623e-06L0.62986 0.336366V4.58292Z" transform="translate(8.81836 148.802)" fill="white"/>
<path d="M0.62986 4.62497L3.20363e-07 4.24656V0L0.62986 0.378404V4.62497Z" transform="translate(10.3711 149.685)" fill="white"/>
<path d="M0.62986 4.58292L0 4.24656V5.13247e-06L0.62986 0.336361V4.58292Z" transform="translate(11.9678 150.609)" fill="white"/>
<path d="M0.62986 4.62496L3.20363e-07 4.24656V-5.13247e-06L0.62986 0.378412V4.62496Z" transform="translate(13.5205 151.491)" fill="white"/>
<path d="M0.62986 4.62497L3.20363e-07 4.2886V2.56623e-06L0.62986 0.378406V4.62497Z" transform="translate(16.6699 153.301)" fill="white"/>
<path d="M0.629861 4.62496L6.40727e-07 4.24656V-5.13247e-06L0.629861 0.378412V4.62496Z" transform="translate(18.2239 154.225)" fill="white"/>
<path d="M0.587869 4.58292L3.20363e-07 4.24656V0L0.587869 0.336356V4.58292Z" transform="translate(19.8193 155.149)" fill="white"/>
<path d="M0.629861 4.62497L6.40727e-07 4.24657V2.56623e-06L0.629861 0.378406V4.62497Z" transform="translate(21.3733 156.032)" fill="white"/>
<path d="M0.629861 4.62497L6.40727e-07 4.24656V-2.56623e-06L0.629861 0.378401V4.62497Z" transform="translate(24.5227 157.842)" fill="white"/>
<path d="M0.629859 4.62497L-6.40727e-07 4.24657V2.56623e-06L0.629859 0.336359V4.62497Z" transform="translate(26.0767 158.766)" fill="white"/>
<path d="M0.629861 4.62497L1.28145e-06 4.2886V5.13247e-06L0.629861 0.378409V4.62497Z" transform="translate(27.6294 159.648)" fill="white"/>
<path d="M0.629859 4.62497L-6.40727e-07 4.24656V-2.56623e-06L0.629859 0.378401V4.62497Z" transform="translate(29.2261 160.573)" fill="white"/>
<path d="M0.587869 4.62497L-6.40727e-07 4.24656V5.13247e-06L0.587869 0.378409V4.62497Z" transform="translate(32.3743 162.382)" fill="white"/>
<path d="M0.629861 4.58292L1.28145e-06 4.24656V-2.56623e-06L0.629861 0.336366V4.58292Z" transform="translate(33.9282 163.306)" fill="white"/>
<path d="M0.62986 4.62497L0 4.24656V0L0.62986 0.378404V4.62497Z" transform="translate(35.4822 164.189)" fill="white"/>
<path d="M0.629861 4.62497L1.28145e-06 4.24656V5.13247e-06L0.629861 0.336361V4.62497Z" transform="translate(37.0776 165.113)" fill="white"/>
<path d="M0.629859 4.62497L-1.28145e-06 4.24656V0L0.629859 0.378404V4.62497Z" transform="translate(40.1855 166.923)" fill="white"/>
<path d="M0.62986 4.58292L0 4.24656V5.13247e-06L0.62986 0.336361V4.58292Z" transform="translate(41.781 167.847)" fill="white"/>
<path d="M0.629859 4.62496L-1.28145e-06 4.24656V-5.13247e-06L0.629859 0.378412V4.62496Z" transform="translate(43.3337 168.73)" fill="white"/>
<path d="M0.58787 4.58292L0 4.24656V0L0.58787 0.336356V4.58292Z" transform="translate(44.9304 169.656)" fill="white"/>
<path d="M0.629861 4.58293L6.40727e-07 4.24656V-5.13247e-06L0.629861 0.336364V4.58293Z" transform="translate(48.0371 171.463)" fill="white"/>
<path d="M0.629859 4.62497L-1.28145e-06 4.24656V-2.56623e-06L0.629859 0.378401V4.62497Z" transform="translate(49.6326 172.346)" fill="white"/>
<path d="M0.629861 4.62497L6.40727e-07 4.24657V2.56623e-06L0.629861 0.378406V4.62497Z" transform="translate(51.1865 173.27)" fill="white"/>
<path d="M0.629859 4.62497L-6.40727e-07 4.2886V5.13247e-06L0.629859 0.378409V4.62497Z" transform="translate(52.7405 174.156)" fill="white"/>
<path d="M0.629863 4.58292L2.56291e-06 4.24657V2.56623e-06L0.629863 0.336359V4.58292Z" transform="translate(55.8899 176.004)" fill="white"/>
<path d="M0.587871 4.62497L-2.56291e-06 4.24656V5.13247e-06L0.587871 0.378409V4.62497Z" transform="translate(57.4854 176.887)" fill="white"/>
<path d="M0.629863 4.58292L2.56291e-06 4.24656V-2.56623e-06L0.629863 0.336366V4.58292Z" transform="translate(59.0393 177.813)" fill="white"/>
<path d="M0.629861 4.62497L1.28145e-06 4.24656V0L0.629861 0.378404V4.62497Z" transform="translate(60.592 178.696)" fill="white"/>
<path d="M0.62986 6.43291L3.20363e-07 6.05451V5.13247e-06L0.62986 0.378409V6.43291Z" transform="translate(7.2229 147.875)" fill="white"/>
<path d="M0.629861 6.39087L6.40727e-07 6.0545V0L0.629861 0.378404V6.39087Z" transform="translate(15.0745 152.418)" fill="white"/>
<path d="M0.629859 6.39086L-6.40727e-07 6.05451V-5.13247e-06L0.629859 0.336364V6.39086Z" transform="translate(22.9272 156.959)" fill="white"/>
<path d="M0.629861 6.39086L1.28145e-06 6.01246V2.56623e-06L0.629861 0.336359V6.39086Z" transform="translate(30.7788 161.5)" fill="white"/>
<path d="M0.62986 6.43291L0 6.05451V-5.13247e-06L0.62986 0.378412V6.43291Z" transform="translate(38.6316 165.999)" fill="white"/>
<path d="M0.629859 6.43291L-1.28145e-06 6.0545V2.56623e-06L0.629859 0.378406V6.43291Z" transform="translate(46.4832 170.539)" fill="white"/>
<path d="M0.629857 6.39087L-2.56291e-06 6.0545V-2.56623e-06L0.629857 0.378401V6.39087Z" transform="translate(54.3359 175.08)" fill="white"/>
<path d="M0.629863 6.39086L2.56291e-06 6.05451V5.13247e-06L0.629863 0.336361V6.39086Z" transform="translate(62.1887 179.62)" fill="white"/>
<path d="M2.6874 0V12.067L1.28145e-06 13.4965V1.38749L2.6874 0Z" transform="translate(63.7415 179.117)" fill="#F37C54"/>
<path d="M2.6874 0L1.28145e-06 1.38749V13.4965L2.6874 12.067V0Z" transform="translate(63.7415 179.117)" fill="#C76746"/>
<path d="M0 1.59771L2.6874 0L66.4292 36.9997L63.7418 38.3872L0 1.59771Z" transform="translate(0 142.117)" fill="#F37C54"/>
<path d="M2.6874 0L0 1.59771L63.7418 38.3872L66.4292 36.9997L2.6874 0Z" transform="translate(0 142.117)" fill="#F8B29B"/>
<path d="M6.67652 5.80107C6.67652 6.55789 6.42458 7.1045 6.00468 7.39881L5.71074 7.56698C5.12287 7.81925 4.28304 7.69313 3.35924 7.18859C2.51943 6.68404 1.76362 5.96927 1.17575 5.12836C0.461908 4.11928 -1.02516e-05 2.94201 -1.02516e-05 1.89088C-1.02516e-05 1.13407 0.251939 0.545451 0.713836 0.251135H0.755842L0.881809 0.167039C1.46968 -0.127277 2.35147 -0.0431917 3.35924 0.503395C4.19906 1.00794 4.95489 1.76475 5.54276 2.60565V2.64769C6.2566 3.65677 6.67652 4.79199 6.67652 5.80107Z" transform="translate(221.333 224.022)" fill="#C59E78"/>
<path d="M60.4246 2.6477L60.2146 2.73179H60.1726L58.367 3.78292L56.0576 5.12837L27.4619 21.7362L4.74495 34.8963L4.40902 35.1066L-2.56291e-06 32.4577L0.125977 32.3736L55.5956 0.251119H55.6376L55.7636 0.167024C56.3515 -0.127292 57.2333 -0.0431814 58.241 0.503406C59.0389 1.04999 59.8367 1.76475 60.4246 2.6477Z" transform="translate(166.451 223.978)" fill="#485654"/>
<path d="M56.3935 5.13247e-06C56.0995 5.13247e-06 55.8476 0.0420349 55.5957 0.16817L55.4697 0.252266H55.4277L-5.12581e-06 32.3327C0.209948 32.2486 0.461897 32.2066 0.713841 32.2066C1.21773 32.2066 1.76361 32.3748 2.39347 32.7111C3.23328 33.2157 4.0311 33.9725 4.61897 34.8554L27.3359 21.6953L55.9316 5.08746L58.2411 3.74201L60.0467 2.69088H60.0887L60.2986 2.56475C59.7107 1.72385 58.9549 0.967034 58.1151 0.462492C57.4432 0.168175 56.8554 5.13247e-06 56.3935 5.13247e-06Z" transform="translate(166.619 223.978)" fill="#6E8583"/>
<path d="M56.7714 3.19542C56.7714 3.95224 56.5195 4.49884 56.0995 4.79316L55.8056 4.96132L0.251941 37.0838L0.209948 37.1259L-5.12581e-06 32.2907L22.675 19.1306L51.2706 2.52271L53.5801 1.17726L55.4277 0.12613L55.6376 0V0.0420349C56.3515 1.05112 56.7714 2.18634 56.7714 3.19542Z" transform="translate(171.238 226.626)" fill="#485654"/>
<path d="M0.0551661 6.8211L0.685026 5.51771L0.727019 5.47567L2.95252 0.934777L3.03651 0.766612C3.54039 -0.116337 4.71613 -0.284533 6.10182 0.514325C6.94163 1.01887 7.73945 1.81774 8.32732 2.65864C8.99917 3.66773 9.41908 4.76089 9.41908 5.76997C9.41908 6.98928 8.74723 7.70405 7.73945 7.662L2.28067 7.53587H2.23867H2.11271L0.559046 7.49384C0.433074 7.49384 0.307108 7.45178 0.223126 7.32565L0.181133 7.24155L0.13914 7.15748C-0.028823 7.11544 -0.0288153 6.98928 0.0551661 6.8211Z" transform="translate(162.91 256.217)" fill="#485654"/>
<path d="M7.81027 7.69427H7.76827H7.72628C7.72628 7.69427 7.76828 7.69427 7.81027 7.69427ZM8.5241 7.48404C8.35614 7.56813 8.23018 7.61016 8.06221 7.65221C8.23018 7.65221 8.35614 7.56813 8.5241 7.48404ZM8.986 3.9943C9.02799 4.03635 9.028 4.12042 9.06999 4.16247L9.11198 4.24656C9.19596 4.54088 9.27993 4.83518 9.36391 5.1295C9.36391 5.21359 9.40591 5.33973 9.40591 5.42382C9.40591 5.54996 9.40591 5.67609 9.40591 5.76018C9.40591 6.26472 9.27994 6.68518 9.06999 6.9795C9.27994 6.68518 9.40591 6.26472 9.40591 5.76018C9.36392 5.21359 9.23794 4.58293 8.986 3.9943ZM8.27217 2.69088L8.31415 2.73295C8.39813 2.81704 8.44013 2.94315 8.48212 3.02724L8.5241 3.0693C8.60808 3.19544 8.65007 3.32156 8.73405 3.44769C8.81804 3.57383 8.86004 3.69997 8.90203 3.82611C8.73406 3.4477 8.52411 3.06929 8.27217 2.69088ZM4.40902 1.02649e-05C3.77916 1.02649e-05 3.31727 0.252276 3.02333 0.756818L2.93935 0.924983L0.713847 5.46588L0.671853 5.50792L0.0419932 6.81131C2.56228e-06 6.8954 0 6.97949 0 7.02153C0 7.10562 2.56228e-06 7.14768 0.0419932 7.18972L0.0839865 7.27382L1.00777 6.76927L2.18352 6.09656L2.30949 6.01246L3.90513 5.1295L7.93623 2.85908L8.27217 2.64885C7.6843 1.7659 6.88647 0.967028 6.04665 0.504532C5.45878 0.16817 4.87092 1.02649e-05 4.40902 1.02649e-05Z" transform="translate(162.924 256.227)" fill="#5B6E6C"/>
<path d="M5.12581e-06 4.54087L0.0419855 4.62497C0.125967 4.70906 0.251947 4.79316 0.377919 4.79316H0.797825L2.05755 4.83519H2.09954L7.55832 4.96132C7.85226 4.96132 8.1042 4.91929 8.35614 4.79316L8.39814 4.7511C8.90203 4.45678 9.23795 3.86816 9.23795 3.02726C9.23795 2.90112 9.23795 2.77499 9.23795 2.6909C9.23795 2.60681 9.19596 2.48067 9.19596 2.39658C9.15397 2.10226 9.06998 1.80793 8.94401 1.51362L8.90202 1.42955C8.86003 1.34546 8.81804 1.21931 8.77605 1.13522C8.73406 1.00909 8.65008 0.882943 8.60809 0.756808C8.5661 0.630672 8.48212 0.504552 8.39814 0.378417L8.35614 0.336356C8.31415 0.252266 8.23018 0.126125 8.18818 0.0420349L8.14619 0L7.81026 0.210226L3.77917 2.48067L2.18351 3.36361L2.05755 3.44771L0.881799 4.12042L5.12581e-06 4.54087Z" transform="translate(163.008 259.002)" fill="#485654"/>
<path d="M8.18818 -5.13247e-06L7.85225 0.210221L3.82115 2.48067L2.22551 3.36361L2.09954 3.4477L0.923792 4.12042L5.12581e-06 4.62496L0.0419855 4.70906C0.125967 4.79315 0.251947 4.87725 0.377919 4.87725H0.797825L2.05755 4.91928H2.09954L7.55832 5.04541H7.60031C7.89424 5.04541 8.14619 5.00338 8.35614 4.87725L8.39814 4.83519C8.90203 4.54087 9.23795 3.95225 9.23795 3.11135C9.23795 2.98521 9.23795 2.85908 9.23795 2.77499C9.23795 2.6909 9.19596 2.56476 9.19596 2.48067C9.15397 2.18635 9.06998 1.89202 8.94401 1.59771L8.90202 1.51364C8.86003 1.42955 8.81804 1.30341 8.77605 1.21931C8.73406 1.09318 8.65008 0.967034 8.60809 0.840898C8.5661 0.714763 8.48212 0.588643 8.39814 0.462507L8.35614 0.420447C8.31415 0.336356 8.23018 0.210216 8.18818 0.126125V-5.13247e-06Z" transform="translate(163.008 258.917)" fill="#3B4846"/>
<path d="M0.069575 1.72384L0.111568 1.80794L0.153549 1.89203C0.23753 1.97612 0.36351 2.06022 0.489482 2.06022H0.909388L2.16911 2.10226V0.630677V0.588643L0.657442 0L0.0275817 1.30339C-0.0144089 1.47157 -0.0144064 1.59771 0.069575 1.72384Z" transform="translate(162.897 261.733)" fill="#24272A"/>
<path d="M0 0.582443C0 1.12903 0.461895 1.88584 1.00777 2.18015C1.55365 2.47447 2.01555 2.30629 2.01555 1.7597C2.01555 1.21312 1.55365 0.456307 1.00777 0.161991C0.461895 -0.17437 0 0.0358557 0 0.582443Z" transform="translate(163.553 261.447)" fill="#24272A"/>
<path d="M2.56291e-06 9.08175V-2.56623e-06L7.85226 4.54088V13.6226L2.56291e-06 9.08175Z" transform="translate(70.166 210.608)" fill="#7E57C5"/>
<path d="M2.56291e-06 -2.56623e-06V9.08175L7.85226 13.6226V4.54088L2.56291e-06 -2.56623e-06Z" transform="translate(70.166 210.608)" fill="#C0A8E3"/>
<path d="M2.56291e-06 4.54087L7.85226 2.56623e-06L15.7045 4.54087L7.85226 9.08176L2.56291e-06 4.54087Z" transform="translate(70.166 206.067)" fill="#7E57C5"/>
<path opacity="0.8" d="M7.85226 2.56623e-06L2.56291e-06 4.54087L7.85226 9.08176L15.7045 4.54087L7.85226 2.56623e-06Z" transform="translate(70.166 206.067)" fill="#E5DBF3"/>
<path d="M1.28145e-06 4.54088L7.85226 -2.56623e-06V9.08175L1.28145e-06 13.6226V4.54088Z" transform="translate(78.0188 210.608)" fill="#00A19B"/>
<path d="M1.28145e-06 4.54088L7.85226 -2.56623e-06V9.08175L1.28145e-06 13.6226V4.54088Z" transform="translate(78.0188 210.608)" fill="#7E57C5"/>
<path d="M0 9.08176V0L7.85225 4.54087V13.5806L0 9.08176Z" transform="translate(44.0906 122.986)" fill="#7A97AB"/>
<path d="M0 4.54088L7.85225 5.13247e-06L15.7045 4.54088L7.85225 9.08175L0 4.54088Z" transform="translate(44.0906 118.445)" fill="#A5BAC9"/>
<path d="M-1.28145e-06 4.54087L7.85225 0V9.08176L-1.28145e-06 13.5806V4.54087Z" transform="translate(51.9421 122.986)" fill="#00A19B"/>
<path d="M-1.28145e-06 4.54087L7.85225 0V9.08176L-1.28145e-06 13.5806V4.54087Z" transform="translate(51.9421 122.986)" fill="#5B7E96"/>
<path d="M0 9.0397V-5.13247e-06L7.85225 4.49883V13.5806L0 9.0397Z" transform="translate(38.8416 141.19)" fill="#CF3A52"/>
<path d="M0 -5.13247e-06V9.0397L7.85225 13.5806V4.49883L0 -5.13247e-06Z" transform="translate(38.8416 141.19)" fill="#E3516E"/>
<path d="M0 4.54087L7.85225 0L15.7045 4.54087L7.85225 9.03971L0 4.54087Z" transform="translate(38.8416 136.649)" fill="#CF3A52"/>
<path d="M7.85225 0L0 4.54087L7.85225 9.03971L15.7045 4.54087L7.85225 0Z" transform="translate(38.8416 136.649)" fill="#F6678A"/>
<path d="M-1.28145e-06 4.49883L7.85225 -5.13247e-06V9.0397L-1.28145e-06 13.5806V4.49883Z" transform="translate(46.6931 141.19)" fill="#CF3A52"/>
<path d="M20.8694 0L8.00908e-08 12.109L0.0419905 36.285L20.8694 24.218V0Z" transform="translate(4.95483 100.28)" fill="#5CD2D2"/>
<path d="M20.8694 0L8.00908e-08 12.109L0.0419905 36.285L20.8694 24.218V0Z" transform="translate(4.95483 100.28)" fill="#21ADAD"/>
<path d="M4.9549 1.442C4.9549 0.0545121 3.82115 -0.407985 2.47745 0.390873C1.09176 1.18973 -6.40727e-07 2.95564 -6.40727e-07 4.34313C-6.40727e-07 5.73062 1.13375 6.19312 2.47745 5.39426C3.82115 4.5954 4.9549 2.82949 4.9549 1.442Z" transform="translate(16.6284 117.885)" fill="white"/>
<path d="M4.9549 1.44201C4.9549 0.0545198 3.82115 -0.407977 2.47745 0.390881C1.09176 1.18974 -6.40727e-07 2.95563 -6.40727e-07 4.34312C-6.40727e-07 5.73061 1.13375 6.19311 2.47745 5.39425C3.82115 4.59539 4.9549 2.8295 4.9549 1.44201Z" transform="translate(16.6284 108.132)" fill="white"/>
<path d="M4.9549 1.44201C4.9549 0.0545224 3.82115 -0.407974 2.47745 0.390884C1.09176 1.18974 -1.60182e-07 2.95564 -1.60182e-07 4.34313C-1.60182e-07 5.73062 1.13375 6.19311 2.47745 5.39426C3.82115 4.5954 4.9549 2.8295 4.9549 1.44201Z" transform="translate(8.56567 117.634)" fill="white"/>
<path d="M0.755832 2.56623e-06L1.60182e-07 1.76589L7.81027 1.97612L8.60809 0.210228L0.755832 2.56623e-06Z" transform="translate(10.7495 119.663)" fill="white"/>
<path d="M7.81027 -5.13247e-06L1.60182e-07 9.24993L0.755832 10.0908L8.60809 0.882946L7.81027 -5.13247e-06Z" transform="translate(10.7495 110.709)" fill="white"/>
<path d="M0 12.067L20.9533 5.13247e-06L41.8227 12.067L20.9114 24.1339L0 12.067Z" transform="translate(38.8416 231.756)" fill="white"/>
<path d="M0 1.02649e-05V3.02724L20.9114 15.0942L41.8227 3.02724V1.02649e-05L20.9114 12.067L0 1.02649e-05Z" transform="translate(38.8416 243.823)" fill="#E6E7E8"/>
<path d="M1.28145e-06 12.067V15.0942L20.9114 3.02724V1.02649e-05L1.28145e-06 12.067Z" transform="translate(59.7522 243.823)" fill="#D3D1D3"/>
<path d="M2.6874 25.6475L0 24.0919V-5.13247e-06L2.64541 1.47158L2.6874 25.6475Z" transform="translate(2.30957 110.919)" fill="#5CD2D2"/>
<path d="M1.2207e-05 -1.02649e-05V2.98521V-1.02649e-05Z" transform="translate(155.029 220.361)" fill="#8B9092"/>
<path d="M28.7216 2.56623e-06L5.12581e-06 16.6078V19.593L1.38569 20.434L30.1493 3.82611V0.798858L28.7216 2.56623e-06Z" transform="translate(155.029 203.754)" fill="#A2D9E7"/>
<path d="M5.12581e-06 -1.02649e-05V2.98521L1.38569 3.82611V0.798858L5.12581e-06 -1.02649e-05Z" transform="translate(155.029 220.362)" fill="#D1ECF2"/>
<path d="M28.7216 2.56623e-06L5.12581e-06 16.6078L1.38569 17.4067L30.1493 0.798858L28.7216 2.56623e-06Z" transform="translate(155.029 203.754)" fill="#D1ECF2"/>
<path d="M28.7636 0L-5.12581e-06 16.6078V19.593L1.42769 20.4339L30.1493 3.82611V0.798855L28.7636 0Z" transform="translate(149.823 200.769)" fill="#A2D9E7"/>
<path d="M-5.12581e-06 0V2.9852L1.42769 3.8261V0.798868L-5.12581e-06 0Z" transform="translate(149.823 217.376)" fill="#D1ECF2"/>
<path d="M28.7636 0L-5.12581e-06 16.6078L1.42769 17.4067L30.1493 0.798856L28.7636 0Z" transform="translate(149.823 200.769)" fill="#D1ECF2"/>
<path d="M28.7216 -5.13247e-06V2.9852L0 19.5931L28.7216 2.9852V-5.13247e-06Z" transform="translate(161.664 207.622)" fill="#747678"/>
<path d="M28.7636 -5.13247e-06L2.56291e-06 16.6499V19.6351L1.42768 20.434L30.1493 3.82611V0.840898L28.7636 -5.13247e-06Z" transform="translate(160.237 206.781)" fill="#A2D9E7"/>
<path d="M2.56291e-06 1.02649e-05V2.98521L1.42768 3.78407V0.798853L2.56291e-06 1.02649e-05Z" transform="translate(160.237 223.433)" fill="#D1ECF2"/>
<path d="M28.7636 -5.13247e-06L2.56291e-06 16.6499L1.42768 17.4487L30.1493 0.840898L28.7636 -5.13247e-06Z" transform="translate(160.237 206.781)" fill="#D1ECF2"/>
<path d="M9.53188 5.84427C9.53188 6.60108 9.27994 7.14769 8.90202 7.442L8.5661 7.61017L5.08088 9.62833C5.50079 9.29197 5.75272 8.78743 5.75272 8.03062C5.75272 7.02154 5.33281 5.88632 4.61897 4.87723V4.8352C4.0311 3.9943 3.27526 3.23748 2.43545 2.73294C1.46966 2.14431 0.587864 2.06022 -5.12581e-06 2.39658L3.94713 0.126135C4.535 -0.126135 5.3748 1.02248e-05 6.2986 0.504552C7.13841 1.00909 7.89425 1.76591 8.48212 2.60681V2.64885C9.11198 3.69997 9.53188 4.83518 9.53188 5.84427Z" transform="translate(218.478 223.978)" fill="#C68590"/>
<path d="M0.209964 0.041986V-1.02492e-05L1.02516e-05 0.125953L0.209964 0.041986Z" transform="translate(223.348 233.607)" fill="#A5BAC9"/>
<path d="M0.167952 1.02492e-05L0.0419855 0.0839515L5.12581e-06 0.125948L0.167952 1.02492e-05Z" transform="translate(218.225 226.374)" fill="#A5BAC9"/>
<path d="M-1.02516e-05 0.0839515L0.125982 1.02492e-05L-1.02516e-05 0.0839515Z" transform="translate(223.223 233.732)" fill="#A5BAC9"/>
<path d="M-1.02516e-05 0.251875L0.461902 0L0.419896 0.0419706L0.0839762 0.209904L-1.02516e-05 0.251875Z" transform="translate(221.543 224.315)" fill="#C68590"/>
<path d="M-5.12581e-06 0.293861L0.545868 -1.02492e-05L-5.12581e-06 0.293861Z" transform="translate(226.666 231.504)" fill="#C68590"/>
<path d="M0.209948 0.0419911V-5.12462e-06L-5.12581e-06 0.125932L0.209948 0.0419911Z" transform="translate(226.456 231.797)" fill="#A5BAC9"/>
<path d="M0.167963 0.041986L0.0419958 0.0839566L-1.02516e-05 0.125953L0.209943 -1.02492e-05H0.167963V0.041986Z" transform="translate(221.333 224.567)" fill="#A5BAC9"/>
<path d="M0 0.0839566L0.125967 -1.02492e-05L0 0.0839566Z" transform="translate(226.329 231.925)" fill="#A5BAC9"/>
<path d="M1.28145e-06 12.067L20.9114 -1.02649e-05L41.8227 12.067L20.9114 24.1339L1.28145e-06 12.067Z" transform="translate(101.323 225.619)" fill="#CF3A52"/>
<path d="M20.9114 -1.02649e-05L1.28145e-06 12.067L20.9114 24.1339L41.8227 12.067L20.9114 -1.02649e-05Z" transform="translate(101.323 225.619)" fill="#F6678A"/>
<path d="M1.28145e-06 -5.13247e-06V2.98522L20.9114 15.0942L41.8227 2.98522V-5.13247e-06L20.9114 12.067L1.28145e-06 -5.13247e-06Z" transform="translate(101.323 237.685)" fill="#CF3A52"/>
<path d="M14.1089 1.47158L12.5972 4.62497L16.2504 7.52609L10.5397 7.18971L7.51634 9.79652L5.54277 6.4329L-5.12581e-06 5.12951L4.493 3.40565L4.11509 0L8.81804 2.27045L14.1089 1.47158Z" transform="translate(113.921 233.145)" fill="white"/>
<path d="M1.28145e-06 -5.13247e-06V2.98522L20.9114 15.0942V12.067L1.28145e-06 -5.13247e-06Z" transform="translate(101.323 237.685)" fill="#E3516E"/>
<path d="M3.20363e-07 12.067L20.9533 0L41.8227 12.067L20.9114 24.1339L3.20363e-07 12.067Z" transform="translate(15.2002 190.257)" fill="#416BA9"/>
<path opacity="0.5" d="M20.9533 0L3.20363e-07 12.067L20.9114 24.1339L41.8227 12.067L20.9533 0Z" transform="translate(15.2002 190.257)" fill="#416BA9"/>
<path d="M3.20363e-07 5.13247e-06V2.9852L20.9533 15.0942L41.8227 2.9852V5.13247e-06L20.9114 12.067L3.20363e-07 5.13247e-06Z" transform="translate(15.2002 202.324)" fill="#1A428A"/>
<path d="M7.42185 0.121321L16.1979 5.20879C16.7438 5.54515 16.7438 6.34401 16.1979 6.68037L10.0253 10.2542C9.77333 10.4224 9.4374 10.4224 9.18546 10.2542L4.4825 7.56331L0.40941 5.20879C-0.136468 4.87243 -0.136468 4.07357 0.40941 3.73721L6.58204 0.163369C6.83398 -0.0468568 7.16991 -0.0468594 7.42185 0.121321Z" transform="translate(27.8503 197.115)" fill="white"/>
<path d="M1.28145e-06 2.94317L2.60342 1.42954L0.125971 5.13247e-06L1.28145e-06 2.94317Z" transform="translate(32.2485 204.637)" fill="white"/>
<path opacity="0.25" d="M3.20363e-07 5.13247e-06V2.9852L20.9533 15.0942L20.9114 12.067L3.20363e-07 5.13247e-06Z" transform="translate(15.2002 202.324)" fill="#929AC4"/>
<path d="M2.60342 0L5.12581e-06 1.51363L36.5739 22.6623L5.12581e-06 1.51363L2.60342 0Z" transform="translate(111.779 184.792)" fill="#E7E9EA"/>
<path d="M2.60342 0L5.12581e-06 1.51363L36.5739 22.6623V19.6351L2.60342 0Z" transform="translate(111.779 184.792)" fill="#AFB6BB"/>
<path d="M5.12581e-06 -2.56623e-06V3.02725L2.60342 1.51363L5.12581e-06 -2.56623e-06Z" transform="translate(111.779 183.278)" fill="#AFB6BB"/>
<path d="M5.12286 1.51362L7.72628 -5.13247e-06L10.3297 1.51362L2.60342 36.3691L5.12581e-06 37.8827L7.72628 3.0693L5.12286 1.51362Z" transform="translate(113.038 111.76)" fill="#543E36"/>
<path d="M5.12581e-06 -2.56623e-06V3.02725L15.6625 12.067V9.03971L5.12581e-06 -2.56623e-06Z" transform="translate(117.028 121.683)" fill="#72594B"/>
<path d="M5.12581e-06 1.51362L2.56143 -5.13247e-06L18.3079 9.0397V12.067L15.6625 13.5806V10.5533L5.12581e-06 1.51362Z" transform="translate(117.028 120.169)" fill="#543E36"/>
<path d="M2.56291e-06 0L13.689 7.90448L2.56291e-06 0Z" transform="translate(121.605 121.304)" fill="#FEFEFE"/>
<path d="M2.56291e-06 0L13.689 7.90448L2.56291e-06 0Z" transform="translate(121.605 121.304)" fill="#D2CFCB"/>
<path d="M-2.56291e-06 2.56623e-06L13.689 7.90449L-2.56291e-06 2.56623e-06Z" transform="translate(119.001 122.817)" fill="#B19380"/>
<path d="M2.60342 0L-2.56291e-06 1.51363L13.689 9.41811V12.4454L15.4946 11.4363L16.2924 7.90449L2.60342 0Z" transform="translate(119.001 121.304)" fill="#A08171"/>
<path d="M0 5.13247e-06V3.02725L15.7045 12.109L15.6625 9.08175L0 5.13247e-06Z" transform="translate(114.635 132.319)" fill="#72594B"/>
<path d="M0 1.47159L2.60343 5.13247e-06L18.3079 9.03971V12.067L15.7045 13.5806L15.6625 10.5533L0 1.47159Z" transform="translate(114.635 130.847)" fill="#543E36"/>
<path d="M-2.56291e-06 -2.56623e-06L13.689 7.86245L-2.56291e-06 -2.56623e-06Z" transform="translate(119.211 131.984)" fill="#FEFEFE"/>
<path d="M-2.56291e-06 -2.56623e-06L13.689 7.86245L-2.56291e-06 -2.56623e-06Z" transform="translate(119.211 131.984)" fill="white"/>
<path d="M2.56143 -2.56623e-06L-5.12581e-06 1.47158L13.647 9.41811L13.689 12.4454L15.4526 11.3942L16.2504 7.86245L2.56143 -2.56623e-06Z" transform="translate(116.65 131.984)" fill="#A08171"/>
<path d="M5.12287 1.51363L7.72628 -2.56623e-06L10.3297 1.51363L2.60343 36.3691L0 37.8827L7.76827 3.0693L5.12287 1.51363Z" transform="translate(128.701 120.842)" fill="#543E36"/>
<path d="M0 34.8554L2.60343 36.3691L10.3297 1.55567L7.72628 -2.56623e-06L0 34.8554Z" transform="translate(110.436 113.274)" fill="#72594B"/>
<path d="M0.0839839 -5.12462e-06L-2.56291e-06 0.0419783L0.0839839 0.125945V-5.12462e-06Z" transform="translate(118.162 113.23)" fill="#A08171"/>
<path d="M2.60342 -2.56623e-06L0.377919 1.3034L5.12581e-06 1.51363L2.64541 3.0693L5.20685 1.51363L2.60342 -2.56623e-06Z" transform="translate(133.824 120.842)" fill="#A08171"/>
<path d="M11.0435 1.51363L13.647 2.56623e-06L16.2504 1.51363L2.60342 63.0677L1.28145e-06 64.5814L13.647 3.02725L11.0435 1.51363Z" transform="translate(102.373 133.119)" fill="#543E36"/>
<path d="M-2.56291e-06 2.56623e-06V3.02725L15.6625 12.109V9.08176L-2.56291e-06 2.56623e-06Z" transform="translate(112.283 143)" fill="#72594B"/>
<path d="M1.30171 -5.13247e-06L5.12581e-06 2.27044L15.7045 11.3102L15.6625 8.2829L1.30171 -5.13247e-06Z" transform="translate(108.21 165.578)" fill="#72594B"/>
<path d="M1.51167 -5.13247e-06L0 2.1443L15.7045 11.184L15.6625 8.15677L1.51167 -5.13247e-06Z" transform="translate(105.607 176.297)" fill="#72594B"/>
<path d="M0.587869 5.13247e-06L2.56291e-06 2.69089L14.2768 10.9317L14.2348 7.90449L0.587869 5.13247e-06Z" transform="translate(111.317 154.814)" fill="#72594B"/>
<path d="M1.76361 5.13247e-06L1.28145e-06 2.01817L15.6625 11.0579V8.03062L1.76361 5.13247e-06Z" transform="translate(103.003 186.978)" fill="#72594B"/>
<path d="M0 1.51363L2.56143 2.56623e-06L16.5023 8.07267V11.0579L13.8989 12.5715V9.54425L0 1.51363Z" transform="translate(104.767 185.464)" fill="#543E36"/>
<path d="M-2.56291e-06 1.47158L2.56143 2.56623e-06L18.3079 9.03971V12.067L15.6625 13.5806V10.5533L-2.56291e-06 1.47158Z" transform="translate(112.283 141.527)" fill="#543E36"/>
<path d="M0 1.51363L2.56143 2.56623e-06L16.2924 7.90449V10.9317L13.689 12.4454L13.647 9.41812L0 1.51363Z" transform="translate(111.906 153.301)" fill="#543E36"/>
<path d="M-5.12581e-06 1.51362L2.60342 5.13247e-06L17.0062 8.32494V11.3522L14.4028 12.8238L14.3608 9.79652L-5.12581e-06 1.51362Z" transform="translate(109.512 164.064)" fill="#543E36"/>
<path d="M2.56291e-06 1.51362L2.60342 5.13247e-06L16.7963 8.19881V11.2261L14.1928 12.6976L14.1509 9.67039L2.56291e-06 1.51362Z" transform="translate(107.118 174.784)" fill="#543E36"/>
<path d="M2.60342 -5.13247e-06L2.56291e-06 1.47158L13.689 9.41812V12.4454L16.3344 10.9317V7.90449L2.60342 -5.13247e-06Z" transform="translate(114.257 142.662)" fill="#A08171"/>
<path d="M2.56143 2.56623e-06L0 1.51363L13.647 9.41812L13.689 12.4454L16.2924 10.9317V7.90449L15.4946 7.48404L2.56143 2.56623e-06Z" transform="translate(111.906 153.301)" fill="#A08171"/>
<path d="M2.60342 5.13247e-06L-5.12581e-06 1.51362L14.3608 9.79652L14.4028 12.8238L17.0062 11.3522V9.1238V8.32494L2.60342 5.13247e-06Z" transform="translate(109.512 164.064)" fill="#A08171"/>
<path d="M2.60342 5.13247e-06L2.56291e-06 1.51362L14.1509 9.67039L14.1928 12.6976L16.7963 11.2261V8.19881L10.9596 4.8352L2.60342 5.13247e-06Z" transform="translate(107.118 174.784)" fill="#A08171"/>
<path d="M2.56143 2.56623e-06L0 1.51363L13.8989 9.54425V12.5715L16.5023 11.0579V8.07267L2.56143 2.56623e-06Z" transform="translate(104.767 185.464)" fill="#A08171"/>
<path d="M11.0435 1.55567L13.647 2.56623e-06L16.2504 1.55567L2.60342 63.1098L2.56291e-06 64.6234L13.689 3.06929L11.0435 1.55567Z" transform="translate(118.036 142.158)" fill="#543E36"/>
<path d="M2.56291e-06 66.9779L2.60342 68.4916L17.804 -5.13247e-06L13.647 5.42383L2.56291e-06 66.9779Z" transform="translate(99.7693 129.209)" fill="#72594B"/>
<path d="M2.56291e-06 -5.13247e-06V3.02725L15.7045 12.109L15.6625 9.08175L2.56291e-06 -5.13247e-06Z" transform="translate(115.096 132.571)" fill="#72594B"/>
<path d="M-2.56291e-06 70.762L2.60342 72.2756L18.6439 -2.56623e-06L13.647 9.20788L-2.56291e-06 70.762Z" transform="translate(115.432 134.505)" fill="#72594B"/>
<path d="M1.51166 1.55567L2.14152 1.2193L2.2675 0.71477L0.125972 -2.56623e-06L5.12581e-06 0.630675L1.51166 1.55567Z" transform="translate(114.718 141.444)" fill="#543E36"/>
<path d="M-5.12581e-06 34.8134L2.60342 36.3691L10.3717 1.55568L7.72629 0L-5.12581e-06 34.8134Z" transform="translate(126.097 122.355)" fill="#72594B"/>
<path d="M-2.56291e-06 1.7659L0.419904 1.51363L3.02333 0L3.5692 0.294315L6.17263 1.80794L3.5692 3.32156L0.96579 1.80794L0.839811 1.7659L0.167958 2.06021L-2.56291e-06 1.7659Z" transform="translate(117.322 97.3389)" fill="#008FBE"/>
<path d="M5.75272 1.55567L6.17263 1.80794L5.75272 1.55567ZM3.02333 0L0.419904 1.51363L-2.56291e-06 1.7659L0.125977 2.06021L0.797818 1.72385L0.923797 1.80794L3.48523 3.27952V0.252274L5.33282 1.3034L3.48523 0.252274L3.02333 0Z" transform="translate(117.322 97.3389)" fill="#008FBE"/>
<path d="M7.85225 4.54088V22.6623L2.56291e-06 18.1215L0.0419958 1.28312e-06L7.85225 4.54088Z" transform="translate(118.246 99.1458)" fill="#00C1DE"/>
<path d="M7.85226 4.49883V22.6623L-5.12581e-06 18.1215L0.0419881 -1.28312e-06L7.85226 4.49883Z" transform="translate(120.85 97.6322)" fill="#00C1DE"/>
<path d="M4.0311 2.31249V20.4339L5.12581e-06 18.1215V5.13247e-06L4.0311 2.31249Z" transform="translate(122.067 119.497)" fill="#54565A"/>
<path d="M3.82116 2.2284V20.3499L2.56291e-06 18.1215V-2.56623e-06L3.82116 2.2284Z" transform="translate(118.246 117.267)" fill="#54565A"/>
<path d="M2.60342 0V18.1215L-5.12581e-06 16.6078V1.51363L2.60342 0Z" transform="translate(126.097 102.173)" fill="#008FBE"/>
<path d="M-5.12581e-06 0L2.60342 1.51363L-5.12581e-06 3.02726V0Z" transform="translate(126.097 118.78)" fill="#008FBE"/>
<path d="M0 18.1215L1.42768 18.9624V0.840908L0 5.13247e-06V18.1215Z" transform="translate(121.353 119.076)" fill="#332E20"/>
<path d="M-5.12581e-06 2.56623e-06L4.74495 3.86816C4.99689 4.07838 5.3748 4.12043 5.71073 3.95224L10.4137 1.21931V2.98521L5.71073 5.71815C5.41679 5.88633 5.03888 5.84428 4.74495 5.63405L-5.12581e-06 1.80794V2.56623e-06Z" transform="translate(126.097 103.686)" fill="#00C1DE"/>
<path d="M2.60342 1.28312e-06L7.81026 3.02725L5.20684 4.54088L-2.56291e-06 1.51362L2.60342 1.28312e-06Z" transform="translate(120.891 99.1458)" fill="#008FBE"/>
<path d="M7.76827 1.21931L10.4137 2.73294L5.71073 5.46587C5.41679 5.63405 5.03888 5.59201 4.74495 5.38178L-5.12581e-06 1.51363L2.60342 0L4.74495 2.27044C4.99689 2.56475 5.4168 2.6068 5.75272 2.43862L7.76827 1.21931Z" transform="translate(126.097 102.173)" fill="#008FBE"/>
<path d="M-5.12581e-06 -1.28115e-06L0.755835 0.461791L0.335928 0.209903L-5.12581e-06 -1.28115e-06Z" transform="translate(122.739 98.6836)" fill="#008FBE"/>
<path d="M1.84758 -1.28312e-06L-2.56291e-06 1.97612L2.60342 0.462498L1.84758 -1.28312e-06Z" transform="translate(120.891 98.6836)" fill="#6CD1E6"/>
<path d="M1.84758 -1.28312e-06L-2.56291e-06 1.97612L2.60342 0.462498L1.84758 -1.28312e-06Z" transform="translate(120.891 98.6836)" fill="#FEFEFE"/>
<path d="M2.60342 1.28312e-06L-2.56291e-06 1.51362L5.20684 4.54088L7.81026 3.02725L2.60342 1.28312e-06Z" transform="translate(120.891 99.1458)" fill="#008FBE"/>
<path d="M2.60342 0L-5.12581e-06 1.51363L4.74495 5.38178C4.91291 5.50792 5.08087 5.54997 5.29082 5.54997C5.41679 5.54997 5.58476 5.50791 5.71073 5.42382L10.4137 2.69089L7.76827 1.17727L5.75272 2.35453C5.62675 2.43862 5.45879 2.48066 5.33282 2.48066C5.12286 2.48066 4.87092 2.39658 4.74495 2.22839L2.60342 0Z" transform="translate(126.097 102.173)" fill="#008FBE"/>
<path d="M1.3437 2.56623e-06L-2.56291e-06 0.75681L2.64542 2.27044L3.98911 1.47158L1.3437 2.56623e-06Z" transform="translate(133.909 102.635)" fill="#F0D0B4"/>
<path d="M5.12581e-06 0.798858L1.3437 2.56623e-06V1.7659L5.12581e-06 2.52271V0.798858Z" transform="translate(136.554 104.107)" fill="#F0D0B4"/>
<path d="M1.3437 2.10226L-2.56291e-06 1.34545V-2.56623e-06L1.3437 0.756818V2.10226Z" transform="translate(116.902 115.164)" fill="#F0D0B4"/>
<path d="M-2.56291e-06 3.06929L2.60342 1.55568L-2.56291e-06 0V3.06929Z" transform="translate(128.03 133.498)" fill="#332E20"/>
<path d="M3.19129 0.176991L-5.12581e-06 2.02698V5.05422L5.20685 2.02698V1.35425C5.20685 0.303121 4.07309 -0.327551 3.19129 0.176991Z" transform="translate(126.097 134.874)" fill="#332E20"/>
<path d="M2.60342 2.56623e-06V18.1215L-5.12581e-06 19.6351V1.51363L2.60342 2.56623e-06Z" transform="translate(126.097 120.294)" fill="#332E20"/>
<path d="M8.27216 2.39657L4.11508 0L0.92379 1.7659C0.377911 2.06021 0.0419958 2.6068 0.0419958 3.23748L2.56291e-06 8.19881L4.32504 10.7215L6.80248 9.29198C7.72628 8.78744 8.27216 7.77835 8.27216 6.72723V2.39657Z" transform="translate(119.926 91.8715)" fill="#212322"/>
<path d="M3.06531 2.56623e-06L0.839813 1.3034C0.335925 1.59771 0 2.1443 0 2.77498V6.81132L1.55366 5.88632C2.47745 5.33974 3.02333 4.3727 3.02333 3.32157V2.56623e-06H3.06531Z" transform="translate(125.132 95.2776)" fill="#F0D0B4"/>
<path d="M0.797828 1.28312e-06L4.9549 2.39657V2.48066C4.9549 3.0693 4.66097 3.61589 4.15708 3.9102V2.90111L-5.12581e-06 0.504542L0.797828 1.28312e-06Z" transform="translate(123.999 91.3678)" fill="#212322"/>
<path d="M-2.56291e-06 16.1802L1.3437 16.9371V0.16103L1.25972 0.118983C0.713839 -0.217379 -2.56291e-06 0.203072 -2.56291e-06 0.833749V16.1802Z" transform="translate(116.902 98.9844)" fill="#00C1DE"/>
<path d="M0 12.067L20.9953 2.56623e-06L23.5148 1.42954L2.64541 13.5385L0 12.067Z" transform="translate(2.30957 98.8524)" fill="#5CD2D2"/>
<path d="M20.9953 2.56623e-06L0 12.067L2.64541 13.5385L23.5148 1.42954L20.9953 2.56623e-06Z" transform="translate(2.30957 98.8524)" fill="#9FE5E5"/>
<path d="M0 4.54088L7.81027 -2.56623e-06L15.6625 4.54088L7.81027 9.08176L0 4.54088Z" transform="translate(67.605 129.04)" fill="#CF3A52"/>
<path d="M0 4.54088L7.81027 -2.56623e-06L15.6625 4.54088L7.81027 9.08176L0 4.54088Z" transform="translate(67.605 129.04)" fill="white"/>
<path d="M2.56291e-06 4.54088L7.85226 5.13247e-06V9.08175L2.56291e-06 13.5806V4.54088Z" transform="translate(75.415 133.581)" fill="#D3D1D3"/>
<path d="M0 9.08175V5.13247e-06L7.81027 4.54088V13.5806L0 9.08175Z" transform="translate(67.605 133.581)" fill="#E6E7E8"/>
<path d="M-5.12581e-06 9.08175V1.02649e-05L7.85226 4.54088V13.6226L-5.12581e-06 9.08175Z" transform="translate(182.576 221.12)" fill="#76BC21"/>
<path opacity="0.5" d="M-5.12581e-06 1.02649e-05V9.08175L7.85226 13.6226V4.54088L-5.12581e-06 1.02649e-05Z" transform="translate(182.576 221.12)" fill="#BBDF87"/>
<path d="M-5.12581e-06 4.54089L7.85225 -1.02649e-05L15.6625 4.54089L7.85225 9.08176L-5.12581e-06 4.54089Z" transform="translate(182.576 216.579)" fill="#A2D45E"/>
<path d="M7.85225 -1.02649e-05L-5.12581e-06 4.54089L7.85225 9.08176L15.6625 4.54089L7.85225 -1.02649e-05Z" transform="translate(182.576 216.579)" fill="#BBDF87"/>
<path d="M0 4.54088L7.81027 1.02649e-05V9.08175L0 13.6226V4.54088Z" transform="translate(190.427 221.12)" fill="#00A19B"/>
<path d="M0 4.54088L7.81027 1.02649e-05V9.08175L0 13.6226V4.54088Z" transform="translate(190.427 221.12)" fill="#76BC21"/>
<path d="M0 4.54088L7.81027 1.02649e-05V9.08175L0 13.6226V4.54088Z" transform="translate(190.427 221.12)" fill="#76BC21"/>
<path d="M0 12.067L20.9113 -5.13247e-06L41.7807 12.067L20.9113 24.1339L0 12.067Z" transform="translate(226.959 240.837)" fill="#FB5373"/>
<path d="M0 0V3.02726L20.9113 15.0942L41.7807 3.02726V0L20.9113 12.067L0 0Z" transform="translate(226.959 252.904)" fill="#CE0E2D"/>
<path d="M1.28145e-06 12.067L20.9114 2.56623e-06L41.8227 12.067L20.9114 24.1339L1.28145e-06 12.067Z" transform="translate(51.9849 150.147)" fill="#F2C06B"/>
<path d="M20.9114 2.56623e-06L1.28145e-06 12.067L20.9114 24.1339L41.8227 12.067L20.9114 2.56623e-06Z" transform="translate(51.9849 150.147)" fill="#F8DAA9"/>
<path d="M1.28145e-06 -5.13247e-06V2.9852L20.9114 15.0942L41.8227 2.9852V-5.13247e-06L20.9114 12.067L1.28145e-06 -5.13247e-06Z" transform="translate(51.9849 162.213)" fill="#F2C06B"/>
<path d="M7.30638 4.70905L-2.56291e-06 5.88633C0.0419881 5.84428 0.0839801 5.84428 0.125971 5.80223L9.32193 0.0840877C9.36392 0.0420426 9.40591 0.0420503 9.4479 5.13247e-06L7.85226 4.3727C7.76828 4.54088 7.55832 4.66701 7.30638 4.70905Z" transform="translate(64.834 157.125)" fill="white"/>
<path d="M10.8756 0.210231L15.6625 2.9852C16.1244 3.23747 16.0824 3.69997 15.5785 4.03633L6.71851 9.5022C6.21462 9.79652 5.45878 9.83857 4.99689 9.5863L0.209953 6.81131C0.125972 6.76927 0.0419907 6.68518 0 6.60109L7.34837 5.46588C7.72628 5.42383 8.1042 5.29769 8.35614 5.08746C8.65007 4.91928 8.81804 4.70905 8.90202 4.45678L10.5397 5.13247e-06C10.6656 0.0840955 10.7916 0.126141 10.8756 0.210231Z" transform="translate(64.6655 157.125)" fill="white"/>
<path d="M20.9114 -5.13247e-06L2.56291e-06 12.067V15.0942L20.9114 2.9852V-5.13247e-06Z" transform="translate(72.8955 162.213)" fill="#C69F59"/>
<path d="M1.02516e-05 5.13247e-06V1.47159L20.9533 13.5386L0.0419907 1.47159V0.04204L1.02516e-05 5.13247e-06Z" transform="translate(226.918 254.461)" fill="#F3F4F4"/>
<path d="M0 -5.13247e-06V1.42954L20.9113 13.4965L20.8694 10.5113L19.5257 11.2681L0 -5.13247e-06Z" transform="translate(226.959 254.503)" fill="#E3625B"/>
<path d="M5.12581e-06 12.067L20.9533 0L41.8227 12.067L20.9114 24.1339L5.12581e-06 12.067Z" transform="translate(225.574 238.61)" fill="#416BA9"/>
<path d="M2.64541 0L5.12581e-06 1.55568L20.9114 13.6226L41.8227 1.55568L41.7807 1.51362L23.5568 12.109L2.64541 0Z" transform="translate(225.574 249.121)" fill="#748EBE"/>
<path d="M5.12581e-06 5.13247e-06V3.02726L20.9114 15.0942L41.8227 3.02726V5.13247e-06L20.9114 12.067L5.12581e-06 5.13247e-06Z" transform="translate(225.574 250.676)" fill="#1A428A"/>
<path d="M0 12.067L20.9113 -1.02649e-05L41.7807 12.067L20.9113 24.1339L0 12.067Z" transform="translate(228.219 234.027)" fill="#10CFC9"/>
<path d="M20.9113 -1.02649e-05L0 12.067L20.9113 24.1339L41.7807 12.067L20.9113 -1.02649e-05Z" transform="translate(228.219 234.027)" fill="#88E0DB"/>
<path d="M0 -5.13247e-06V3.02725L20.9113 15.1363L41.7807 3.02725V-5.13247e-06L20.9113 12.067L0 -5.13247e-06Z" transform="translate(228.219 246.094)" fill="#00A19B"/>
<path d="M13.7339 6.10719C13.6919 5.43447 13.146 4.80381 12.3902 4.34131C11.6344 3.87882 10.5846 3.54244 9.45085 3.45835L8.23311 3.37426L8.14913 2.65951C8.10713 1.98679 7.56128 1.3561 6.80544 0.893606C6.04961 0.431109 4.99985 0.0947325 3.8661 0.0106422C1.64059 -0.115493 -0.08103 0.893611 0.00295129 2.23906L0.0869378 2.9538L0.128918 3.58448L0.212905 4.46744L0.506844 7.87309L6.13358 8.16741L7.60325 8.25151L8.61104 8.29354L9.82875 8.37764C12.1382 8.46173 13.8599 7.45264 13.7339 6.10719Z" transform="translate(243.207 241.373)" fill="white"/>
<path d="M0 -5.13247e-06V3.02725L20.9113 15.1363V12.067L0 -5.13247e-06Z" transform="translate(228.219 246.094)" fill="#00C4BC"/>
<path d="M5.12581e-06 5.13247e-06V3.02726L1.34371 3.78407L5.12581e-06 3.02726V5.13247e-06Z" transform="translate(225.574 250.676)" fill="#F3F4F4"/>
<path d="M1.02516e-05 5.12462e-06L0.0419907 0.0419757V5.12462e-06H1.02516e-05Z" transform="translate(226.918 254.461)" fill="#EDEEEE"/>
<path d="M0 5.13247e-06V0.04204L19.5257 11.3101L0 5.13247e-06Z" transform="translate(226.959 254.461)" fill="#EF8B81"/>
<path d="M0 5.13247e-06V0.04204L19.5257 11.3101L0 5.13247e-06Z" transform="translate(226.959 254.461)" fill="white"/>
<path d="M5.12581e-06 5.13247e-06V3.02726L1.34371 3.78407H1.38569L20.9114 15.0942V12.067L5.12581e-06 5.13247e-06Z" transform="translate(225.574 250.676)" fill="#5C6CA7"/>
<path d="M2.60342 36.3691L-5.12581e-06 34.8134L7.72629 0L10.3717 1.55568L2.60342 36.3691Z" transform="translate(126.097 122.355)" fill="#72594B"/>
</svg>
