<svg width="45" height="52" viewBox="0 0 45 52" fill="none" xmlns="http://www.w3.org/2000/svg">
<path d="M0 0V44.8833H13.9991L20.7107 51.5335L24.9417 47.3294L16.4782 38.8989H5.98444V5.98444H38.8989V38.8989H28.4261V44.8833H44.8833V0H0Z" fill="#2E87FF"/>
</svg>
